<?xml version="1.0" standalone="no"?>
<!DOCTYPE svg PUBLIC "-//W3C//DTD SVG 20010904//EN"
 "http://www.w3.org/TR/2001/REC-SVG-20010904/DTD/svg10.dtd">
<svg version="1.0" xmlns="http://www.w3.org/2000/svg"
 width="260.000000pt" height="260.000000pt" viewBox="0 0 260.000000 260.000000"
 preserveAspectRatio="xMidYMid meet">
<metadata>
Created by potrace 1.11, written by Peter Selinger 2001-2013
</metadata>
<g transform="translate(0.000000,260.000000) scale(0.100000,-0.100000)"
fill="#000000" stroke="none">
<path d="M1125 2539 c-410 -63 -755 -311 -940 -675 -93 -182 -130 -343 -130
-564 0 -221 37 -382 130 -564 88 -173 240 -349 396 -459 137 -97 321 -174 494
-208 92 -18 358 -18 450 0 513 100 906 493 1006 1006 18 92 18 358 0 450 -51
259 -173 486 -360 667 -180 175 -376 281 -621 334 -89 19 -338 27 -425 13z
m977 -446 c23 -21 23 -44 -2 -76 -11 -14 -20 -29 -20 -33 0 -5 -64 -73 -142
-151 -133 -133 -141 -143 -126 -160 23 -27 48 -79 48 -103 0 -15 6 -20 24 -20
47 0 70 -46 46 -91 -15 -26 -75 -26 -90 0 -5 11 -10 29 -10 41 0 15 -5 20 -15
16 -8 -3 -34 10 -60 29 -25 19 -49 35 -53 35 -4 0 -242 -234 -527 -521 -286
-286 -527 -525 -536 -530 -10 -5 -45 -15 -79 -23 -56 -13 -60 -13 -56 2 2 9 8
33 11 52 4 19 14 49 22 65 8 17 249 265 536 552 l520 521 -31 37 c-18 19 -32
47 -32 60 0 19 -5 25 -21 25 -52 0 -75 42 -49 91 22 41 100 12 100 -38 0 -17
6 -23 23 -23 13 0 41 -15 64 -34 l40 -35 139 140 c76 76 143 139 147 139 5 0
22 11 39 25 34 29 64 32 90 8z"/>
<path d="M2043 2064 c-3 -8 1 -22 9 -30 12 -12 17 -12 33 0 16 12 17 16 6 30
-17 20 -40 21 -48 0z"/>
<path d="M1976 2033 c-12 -12 -6 -32 16 -53 27 -25 48 -26 48 -2 0 26 -50 69
-64 55z"/>
<path d="M1910 1971 c0 -16 51 -71 66 -71 22 0 17 28 -11 55 -24 25 -55 33
-55 16z"/>
<path d="M1870 1906 c0 -8 14 -26 32 -41 28 -23 32 -25 40 -10 14 24 -16 65
-47 65 -15 0 -25 -6 -25 -14z"/>
<path d="M1492 1891 c-20 -12 -10 -46 13 -46 14 0 20 7 20 24 0 27 -13 35 -33
22z"/>
<path d="M1816 1871 c-9 -15 4 -38 30 -56 44 -29 61 6 21 43 -25 23 -42 28
-51 13z"/>
<path d="M1776 1814 c-6 -15 34 -64 53 -64 23 0 21 24 -5 51 -32 33 -39 35
-48 13z"/>
<path d="M1565 1783 c14 -35 175 -201 232 -240 31 -20 53 -11 45 19 -7 30
-211 234 -246 248 -43 16 -47 12 -31 -27z"/>
<path d="M1720 1770 c-11 -7 -8 -16 14 -45 22 -29 31 -34 42 -24 21 18 17 36
-14 58 -18 12 -33 17 -42 11z"/>
<path d="M1093 1148 c-464 -464 -524 -528 -539 -571 -9 -26 -15 -50 -13 -52 3
-2 28 5 58 15 50 17 89 53 575 539 l520 520 -34 36 c-19 19 -36 35 -39 35 -4
0 -241 -235 -528 -522z"/>
<path d="M1864 1495 c-10 -24 12 -42 34 -29 24 16 21 38 -6 42 -13 2 -25 -3
-28 -13z"/>
</g>
</svg>
